<?xml version="1.0" encoding="utf-8"?>
<!-- Generator: Adobe Illustrator 18.0.0, SVG Export Plug-In . SVG Version: 6.00 Build 0)  -->
<!DOCTYPE svg PUBLIC "-//W3C//DTD SVG 1.1//EN" "http://www.w3.org/Graphics/SVG/1.1/DTD/svg11.dtd">
<svg version="1.1" id="Layer_1" xmlns="http://www.w3.org/2000/svg" xmlns:xlink="http://www.w3.org/1999/xlink" x="0px" y="0px"
	 viewBox="0 0 36 36" enable-background="new 0 0 36 36" xml:space="preserve">
<g>
	<path fill="#50B6DD" d="M14.2,11.2c-0.1,1.1-0.4,1.9-1.4,2.4c-0.7,0.4-1.3,0.9-2,1.3c-0.5,0.3-0.6,0.7-0.5,1.2
		c0.1,0.3,0.2,0.7,0.4,0.9c2.2,3.1,4.9,5.8,8,8c0.4,0.3,1,0.4,1.5,0.6c0.4,0.1,0.7-0.1,1-0.5c0.4-0.8,0.9-1.5,1.4-2.2
		c0.5-0.8,1.7-1.3,2.7-1.1c2.8,0.6,5.5,1.3,8,2.5c1.3,0.6,2,2.2,1.4,3.5c-1.2,3.1-3.1,5.6-5.7,7.6c-0.1,0.1-0.3,0.1-0.4,0.1
		c-3.4,0-6.7-0.6-9.8-1.9c-8.6-3.8-14.4-10-17.4-18.9c-0.8-2.3-1.1-4.8-1.1-7.2c0-0.2,0.1-0.4,0.2-0.6C2.6,4.4,5,2.5,8,1.3
		c1.1-0.5,2.1-0.2,3,0.4c0.2,0.1,0.4,0.4,0.5,0.6c0.9,2.7,1.8,5.3,2.6,8C14.2,10.6,14.2,10.9,14.2,11.2z M27.6,34.1
		c0.5,0.1,0.9-0.1,1.3-0.5c1.8-1.7,3.2-3.6,4.2-5.9c0.5-1.1,0.3-1.7-0.9-2.2c-2.2-1-4.6-1.7-7-2.1c-1.1-0.2-1.3,0-1.8,0.7
		c-0.4,0.6-0.8,1.2-1.2,1.8c-0.5,0.9-1.3,1.2-2.3,1.2c-0.8,0-1.5-0.3-2.1-0.7c-3.2-2.4-6-5.1-8.4-8.4c-0.2-0.3-0.5-0.7-0.6-1.1
		c-0.5-1.5-0.1-2.5,1.2-3.4c0.6-0.4,1.1-0.7,1.7-1.1c0.9-0.5,1.1-0.7,0.7-2c-0.7-2.4-1.5-4.7-2.3-7.1c-0.3-0.8-0.9-1.1-1.7-0.8
		C6.1,3.6,4,5.2,2.2,7.3C2,7.5,1.9,7.9,1.9,8.2c0,2.1,0.3,4.1,1,6.1C5,20.8,9,25.9,14.6,29.7C18.5,32.3,22.8,33.9,27.6,34.1z"/>
	<path fill="#50B6DD" d="M35.5,17.1c0,0.2,0,0.4,0,0.6c0,0.5-0.3,0.7-0.7,0.7c-0.4,0-0.7-0.3-0.7-0.7c-0.1-0.9-0.1-1.9-0.3-2.8
		c-1.1-6.3-6-11.3-12.2-12.7c-1-0.2-2.1-0.3-3.2-0.4c-0.6-0.1-0.9-0.3-0.9-0.8c0-0.4,0.4-0.7,0.9-0.7c7.8,0,15,5.8,16.6,13.5
		C35.3,14.9,35.5,16,35.5,17.1C35.6,17.1,35.6,17.1,35.5,17.1z"/>
	<path fill="#50B6DD" d="M30.7,17.1c0,0.2,0,0.3,0,0.5c0,0.5-0.3,0.9-0.8,0.9c-0.4,0-0.7-0.3-0.8-0.8c-0.1-0.7-0.1-1.5-0.3-2.2
		C28,10.6,23.7,7,18.8,6.8c-0.2,0-0.3,0-0.5,0c-0.5-0.1-0.8-0.4-0.8-0.8c0-0.4,0.3-0.7,0.8-0.7c1.5,0,2.9,0.2,4.2,0.8
		c4.6,1.9,7.3,5.3,8.1,10.2C30.7,16.5,30.7,16.8,30.7,17.1z"/>
	<path fill="#50B6DD" d="M18.5,10.4c3.9,0.2,7,3.3,7,7c0,0.7-0.2,1-0.7,1c-0.5,0-0.8-0.3-0.8-1c-0.2-2.4-1.4-4.2-3.6-5.1
		c-0.6-0.3-1.3-0.4-2-0.5c-0.6-0.1-1-0.3-0.9-0.8C17.5,10.6,17.8,10.4,18.5,10.4C18.5,10.4,18.6,10.4,18.5,10.4z"/>
</g>
</svg>
