<?xml version="1.0" encoding="utf-8"?>
<!-- Generator: Adobe Illustrator 18.0.0, SVG Export Plug-In . SVG Version: 6.00 Build 0)  -->
<!DOCTYPE svg PUBLIC "-//W3C//DTD SVG 1.1//EN" "http://www.w3.org/Graphics/SVG/1.1/DTD/svg11.dtd">
<svg version="1.1" id="Layer_1" xmlns="http://www.w3.org/2000/svg" xmlns:xlink="http://www.w3.org/1999/xlink" x="0px" y="0px"
	 viewBox="0 0 36 36" enable-background="new 0 0 36 36" xml:space="preserve">
<g>
	<path fill="#50B6DD" d="M11.2,20.9c-0.1-0.2-0.2-0.3-0.2-0.4c-1.2-2.1-2.2-4.2-3-6.4c-1.2-3.4-0.5-6.5,1.6-9.3
		c2.2-2.9,5.1-4.4,8.8-4.3c5.1,0.1,9.5,4.1,10.3,9.1c0.3,2-0.1,3.8-0.9,5.6c-0.8,1.8-1.8,3.6-2.6,5.4c-0.1,0.1-0.1,0.2-0.2,0.4
		c0.2,0,0.3,0,0.4,0c1.4,0,2.8,0,4.1,0c0.4,0,0.7,0.2,0.8,0.6c1.4,4.2,2.8,8.5,4.2,12.7c0,0.1,0,0.1,0.1,0.2
		c0.2,0.7-0.1,1.1-0.8,1.1c-3.3,0-6.7,0-10,0c-7,0-14.1,0-21.1,0c-0.1,0-0.2,0-0.3,0c-0.7,0-1-0.4-0.8-1.1c0.4-1.2,0.8-2.5,1.2-3.7
		c1-3,2-6.1,3.1-9.1C6,21.1,6.2,21,6.7,21c1.4,0,2.7,0,4.1,0C10.9,20.9,11,20.9,11.2,20.9z M32.8,34.1c0-0.1,0-0.2-0.1-0.3
		c-1.2-3.7-2.5-7.4-3.7-11.1c-0.1-0.2-0.2-0.3-0.4-0.3c-1.4,0-2.9,0-4.3,0c-0.3,0-0.4,0.1-0.6,0.3c-1.7,2.5-3.3,5-5,7.5
		c-0.4,0.6-1,0.6-1.4,0c-1.7-2.5-3.4-5-5-7.5c-0.1-0.2-0.3-0.3-0.5-0.3c-1.4,0-2.8,0-4.2,0c-0.3,0-0.5,0.1-0.6,0.4
		C5.7,26.4,4.5,30,3.3,33.6c0,0.1-0.1,0.3-0.1,0.4C13.1,34.1,22.9,34.1,32.8,34.1z M18,28.7c0.1-0.2,0.2-0.3,0.3-0.4
		c1.6-2.5,3.3-4.9,4.9-7.4c1.3-2.1,2.5-4.4,3.4-6.8c0.6-1.6,0.8-3.2,0.5-4.9c-0.8-4-3.8-6.7-7.9-7.2c-3.8-0.5-7.4,1.3-9.2,4.6
		C9,8.3,8.6,10.1,8.9,12c0.2,1.3,0.7,2.4,1.2,3.6c1.3,2.9,2.9,5.6,4.6,8.2C15.8,25.5,16.9,27.1,18,28.7z"/>
	<path fill="#50B6DD" d="M18,16.3c-2.8,0-5.2-2.4-5.2-5.2C12.8,8.4,15.2,6,18,6c2.8,0,5.2,2.4,5.2,5.2C23.2,13.9,20.8,16.3,18,16.3z
		 M18,7.4c-2.2,0-3.8,1.6-3.7,3.8c0,2.1,1.6,3.7,3.8,3.6c2.1,0,3.6-1.6,3.6-3.8C21.7,9,20.1,7.4,18,7.4z"/>
</g>
</svg>
