<svg id="Слой_1" xmlns="http://www.w3.org/2000/svg" viewBox="0 0 70 70">
  <style>
    .st0{fill:#4FB6DC;} .st1{fill:#4FB6DC;stroke:#4FB6DC;stroke-width:0.6;stroke-miterlimit:10;} .st2{fill:#4FB6DC;stroke:#4FB6DC;stroke-width:0.5;stroke-miterlimit:10;} .st3{fill:#50B6DD;}
  </style>
  <path class="st0" d="M67.7 20.2c-.1-1.8-1.7-3.2-3.5-3H19.1c-.3 0-.6-.3-.5-.7-.1-.8-.3-1.7-.5-2.5-.7-3.6-3-6.1-6.3-6.8C11 7 10.2 7 9.5 7H4.1c-.7.1-1.2.7-1.1 1.4.1.7.7 1.2 1.4 1.1h6.3c2.3 0 4.2 1.6 4.7 3.8.4 1.9.7 3.7 1 5.5l1.9 10c1 5.4 2 10.9 3.1 16.3.1.7.2 1.4.4 2.1.7 1.8 2.4 3.1 4.4 3.1h33.4c.7-.2 1.1-.8 1-1.5-.1-.6-.7-1-1.3-1H26.1c-1.2 0-1.7-.4-2-1.5-.3-1.1-.5-2.3-.7-3.5h31.9c3.6-.1 6.8-2.5 7.9-5.9 1.4-5.1 2.8-10.1 4.2-15.1.3-.6.3-1.1.3-1.6zm-2.6.5L60.9 36c-.7 2.5-3 4.2-5.6 4.2H23.6c-.4 0-.6-.3-.6-.6-.8-4.4-1.7-8.9-2.5-13.2l-1.3-6.6 45.2.1c.9-.1 1-.1.7.8zM56.7 52.8c-3.5-.1-6.5 2.7-6.5 6.2-.1 3.5 2.7 6.5 6.2 6.5h.4c3.5-.1 6.3-2.9 6.4-6.4-.1-3.4-3-6.3-6.5-6.3zm3.9 6.5c-.1 2.3-1.6 3.8-4 3.8-2.1-.1-3.7-1.9-3.6-4 .1-2 1.8-3.6 3.8-3.6h.4c2 .1 3.5 1.8 3.4 3.8 0-.1 0 0 0 0zM27.4 52.8c-3.5-.1-6.5 2.7-6.5 6.2-.1 3.5 2.7 6.5 6.2 6.5h.4c3.5-.1 6.3-3.1 6.2-6.6-.2-3.3-2.9-6-6.3-6.1zm-.1 10.3c-2.1 0-3.8-1.7-3.8-3.9 0-2.1 1.7-3.8 3.9-3.8 2.1 0 3.8 1.7 3.8 3.9 0 2.1-1.7 3.8-3.9 3.8z"/>
</svg>
