<svg id="Слой_1" xmlns="http://www.w3.org/2000/svg" viewBox="0 0 70 70">
  <style>
    .st0{fill:#4FB6DC;} .st1{fill:#4FB6DC;stroke:#4FB6DC;stroke-width:0.6;stroke-miterlimit:10;} .st2{fill:#4FB6DC;stroke:#4FB6DC;stroke-width:0.5;stroke-miterlimit:10;} .st3{fill:#50B6DD;}
  </style>
  <path class="st0" d="M59.7 51.7c-.5-1-1.5-1.7-2.6-1.9h-1.5c-.4 0-.8-.1-1.1-.4l-8.6-8.6-3.2-3.2c-.1-.1-.2-.2-.2-.3l-.2-.3.3-.3.3-.3 1.6-1.6 4.5-4.5c.3-.3.8-.5 1.2-.3 1.4.3 2.8.3 4.2.1 5.8-1 9.9-6.1 9.8-11.9.1-.5-.2-1-.6-1.3-.4-.2-.9-.1-1.3.2l-2.5 1.5c-1.1.7-2.2 1.3-3.4 2-.3.2-.7.2-1 0-1.6-1-2.7-2.7-3.1-4.5-.1-.4.1-.8.4-1 2.2-1.3 4.3-2.5 6.7-4 .4-.2.6-.5.6-.9 0-.3-.1-.6-.4-.8-3.1-2.4-6.2-3.1-9.7-2.3-2.7.6-5 2.3-7 5-1.8 2.3-2.5 4.5-2.4 6.8.1 1.4-.4 2.9-1.3 4-.6.7-1.3 1.4-1.9 2l-.8.8c-.1.1-.2.2-.4.3l-.4.4-.1-.3c-.7-2.5-2.4-4.2-4.1-5.8l-.5-.4-1.3-1.4-3.3-3.3c-2.2-2.1-4.3-4.3-6.4-6.4-2.3-2.4-5.9-2.8-8.6-1-1 .7-2 1.6-2.8 2.5-2.6 2.7-2.5 6.8.1 9.4 4 4.1 8.1 8.2 12.1 12.1l.8.8c1 1 2.2 1.8 3.5 2.4l.6.3.7.2-.2.2-.8.8-1.7 1.7c-.8.9-2 1.5-3.2 1.8-.7.1-1.5.2-2.2.3-.5 0-1 .1-1.5.2-6.2.7-10.8 6.6-10 12.7 0 .5.2.9.6 1.2.4.1.9 0 1.3-.2l.9-.5c2-1.2 4.1-2.5 6.1-3.7.3-.2.7-.2 1 0 1.6 1 2.7 2.6 3.1 4.4.2.4 0 .9-.4 1.1-2.3 1.4-4.8 2.8-7.1 4.3l-.3.2c-.4.2-.6.5-.7 1 0 .3.2.6.4.8 2.9 2 6 2.7 9.1 1.9 2.7-.6 5-2.2 7-4.9 1.8-2.3 2.5-4.4 2.5-6.6-.1-2 .7-3.9 2.2-5.3.9-.9 1.8-1.8 2.6-2.7l1.4-1.4.3-.3.3-.3.1.2.1.2c.1.1.1.2.2.3l2.6 2.6 8.5 8.5c.8.7 1.3 1.7 1.2 2.8-.1 1.3.6 2.6 1.9 3.1 2.3 1.2 4.6 2.3 6.9 3.4l1.2.6c.5.3 1.1.2 1.4-.2.7-.7 1.4-1.5 2.2-2.2.5-.3.6-1 .2-1.4-1.2-3-2.5-5.6-3.9-8.4zM38 26.9l1.4-1.4c1.4-1.2 2.3-2.9 2.7-4.7.1-.5.2-1 .2-1.4-.2-2.5.7-4.7 2.7-7 1.4-1.8 3.4-3 5.6-3.4 2.1-.3 4.2 0 6 1.1l.4-.1-.4.3c-.1.1-.2.2-.4.2l-1.4.8c-1.3.8-2.7 1.6-4.1 2.4-.6.3-.9.9-.8 1.5.2 3.4 2.2 6.4 5.4 7.7.4.2.8.1 1.2-.2l3.2-1.9 2.2-1.3-.1.5c0 .1 0 .3-.1.4 0 .2-.1.5-.1.7-1.2 4.4-5.3 7.4-9.9 7.2-.7-.1-1.4-.2-2.1-.4-.5-.2-1 0-1.4.4l-3.3 3.3-1.1 1.1-.3.3-.5.3V33c-.3-2.1-1.9-3-3.5-4.1l-.4-.2-1.2-.6-.6-.3-.2-.1.9-.8zm-6.9 18.3c-1.3 1.2-2.2 2.8-2.6 4.6-.1.5-.2 1-.2 1.4.2 2.5-.7 4.7-2.8 7.1-1.4 1.7-3.4 2.9-5.6 3.4-.5.1-1 .1-1.5.1-1.3 0-2.6-.3-3.8-.8l-.3-.1.5-.3.4-.2 1.4-.9 4.7-2.8c.5-.2.8-.7.7-1.3-.1-3.4-2.1-6.4-5.2-7.8-.4-.2-1-.2-1.4 0-1.4.9-2.8 1.7-4.3 2.6l-1.3.8-.4.3-.6.3v-.3c.1-1.9.8-3.6 1.9-5.1 1.8-2.5 4.8-4 7.9-3.9 2.6.1 5-1 6.8-2.8.4-.5 1-1 1.5-1.5l.7-.7.2-.2.3.6c1.2 2.3 2.2 4.6 5 5.4l.3.1-2.3 2zm2.5-4.8c-.2.3-.7.4-1 .2l-.2-.2c-1-1-1.8-2.2-2.3-3.6-.5-1.6-1.8-2.8-3.4-3.3-1.4-.5-2.6-1.3-3.6-2.3-3.5-3.4-6.9-6.9-10.3-10.3l-2.5-2.5c-.9-.9-1.4-2.2-1.4-3.5 0-1.2.5-2.4 1.3-3.2.5-.5 1-1.1 1.6-1.6 1.8-1.8 4.8-1.8 6.6 0 4.3 4.3 8.7 8.6 13.1 13.1 1 1 1.7 2.2 2.2 3.5.6 1.6 1.8 2.8 3.4 3.4 1.3.5 2.5 1.3 3.5 2.3.2.1.3.4.3.6 0 .2-.1.5-.3.6-2.8 2.6-5 4.8-7 6.8zm27.7 20.3c-.5.5-.8.7-1.1.7-.4-.1-.7-.2-1-.4l-1.8-.9c-1.4-.7-2.9-1.5-4.4-2.2-.7-.2-1.1-1-1-1.7.3-1.7-.4-2.8-1.6-3.9-3.1-3-6.2-6.1-9.2-9.1l-3.4-3.4-.1-.2-.2-.2 2.1-2.1.4.4c.2.2.4.4.7.6l1.6 1.7c3.8 3.7 7.5 7.5 11.2 11.2.3.4.9.6 1.4.6h1.4c.7-.1 1.4.3 1.6 1 1.1 2.1 2.2 4.4 3.4 6.9.3.4.3.8 0 1z"/>
</svg>
