<svg id="Layer_1" xmlns="http://www.w3.org/2000/svg" viewBox="0 0 15 28">
  <style>
    path{fill: #c8c8c8;}
  </style>
  <path d="M13.4 27.5c-.3 0-.5-.1-.7-.3L.3 14 12.7.8c.4-.4 1-.4 1.4 0 .4.4.4 1 0 1.4L3.1 14l11.1 11.8c.4.4.4 1 0 1.4-.3.2-.5.3-.8.3z"/>
</svg>
