<svg xmlns="http://www.w3.org/2000/svg" viewBox="0 0 240.3 234.2">
  <g fill="none" stroke="gray" stroke-width="4.7242" stroke-miterlimit="10">
    <path d="M224 53.3H74.7c-6.2 0-11.3-5.1-11.3-11.3V20.8c0-6.6 5.4-11.9 11.9-11.9H224c6.6 0 11.9 5.4 11.9 11.9v20.6c0 6.5-5.4 11.9-11.9 11.9z"/>
    <path d="M215 39.9h-5.5c-1.7 0-3.2-1.4-3.2-3.2V25.5c0-1.7 1.4-3.2 3.2-3.2h5.5c1.7 0 3.2 1.4 3.2 3.2v11.3c0 1.7-1.4 3.1-3.2 3.1zM185.7 39.9h-5.5c-1.7 0-3.2-1.4-3.2-3.2V25.5c0-1.7 1.4-3.2 3.2-3.2h5.5c1.7 0 3.2 1.4 3.2 3.2v11.3c0 1.7-1.5 3.1-3.2 3.1zM224 111.7H74.7c-6.2 0-11.3-5.1-11.3-11.3V78.5c0-6.2 5.1-11.3 11.3-11.3H224c6.6 0 11.9 5.4 11.9 11.9v20.6c0 6.6-5.4 12-11.9 12z"/>
    <path d="M215 98.3h-5.5c-1.7 0-3.2-1.4-3.2-3.2V83.8c0-1.7 1.4-3.2 3.2-3.2h5.5c1.7 0 3.2 1.4 3.2 3.2v11.3c0 1.8-1.4 3.2-3.2 3.2zM185.7 98.3h-5.5c-1.7 0-3.2-1.4-3.2-3.2V83.8c0-1.7 1.4-3.2 3.2-3.2h5.5c1.7 0 3.2 1.4 3.2 3.2v11.3c0 1.8-1.5 3.2-3.2 3.2zM224 170.1H75.3c-6.6 0-11.9-5.4-11.9-11.9V137c0-6.2 5.1-11.3 11.3-11.3H224c6.6 0 11.9 5.4 11.9 11.9v20.6c0 6.5-5.4 11.9-11.9 11.9z"/>
    <path d="M215 156.7h-5.5c-1.7 0-3.2-1.4-3.2-3.2v-11.3c0-1.7 1.4-3.2 3.2-3.2h5.5c1.7 0 3.2 1.4 3.2 3.2v11.3c0 1.7-1.4 3.2-3.2 3.2zM185.7 156.7h-5.5c-1.7 0-3.2-1.4-3.2-3.2v-11.3c0-1.7 1.4-3.2 3.2-3.2h5.5c1.7 0 3.2 1.4 3.2 3.2v11.3c0 1.7-1.5 3.2-3.2 3.2z"/>
  </g>
  <g fill-rule="evenodd" clip-rule="evenodd">
    <path fill="#FFF" d="M1 132v83.4l110.4 16V117L1 132"/>
    <path fill="#27AEE4" d="M50.1 172.5h56.4v-49.2L50.1 131v41.5M45.2 172.5v-40.9l-39.3 5.3v35.6h39.3M45.2 177.4H5.9v34.4l39.3 5.7v-40.1M50.1 177.4v40.8l56.4 8.2v-49H50.1"/>
  </g>
  <g fill-rule="evenodd" clip-rule="evenodd">
    <path fill="#FFF" d="M26.4 87.4c-14 0-25.4-12-25.4-26.8C1 46 12.1 34 25.9 33.8c4.4-5.5 10.8-8.7 17.7-8.8C46.1 10.7 57.9 0 72 0c9.3 0 17.9 4.9 23.3 12.8 2.8-.9 5.6-1.4 8.6-1.4 15.4 0 28 13.3 28 29.6v.9c6.6 4.5 10.7 12.3 10.7 20.7 0 11.4-7.3 21.3-17.8 24.1h-.2l-3.4.7H26.4z"/>
    <path fill="#FFF" d="M120.5 81.8H26.4c-10.9 0-19.8-9.5-19.8-21.3 0-11.7 8.9-21.3 19.8-21.3.8 0 1.5.1 2.3.2 3.3-5.5 8.9-8.9 15-8.9 1.7 0 3.4.3 5 .8v-.7c0-13.8 10.4-25 23.2-25 9 0 17.1 5.7 20.9 14.5 3.3-2 7.1-3.1 10.9-3.1 12.3 0 22.4 10.8 22.4 24 0 1.3-.1 2.6-.3 3.9 6.6 3 11 9.9 11 17.6 0 9-5.7 16.6-13.7 18.7l-2.6.6z"/>
    <path fill="gray" d="M120.6 83.6H26.4c-12 0-21.7-10.4-21.7-23.1 0-13.2 10.5-24 23-23.1 3.7-5.5 9.6-8.8 16-8.8 1.1 0 2.1.1 3.2.3.8-14 11.7-25.2 25-25.2 9 0 17.3 5.3 21.7 13.7 3.2-1.6 6.6-2.4 10.1-2.4 13.4 0 24.2 11.6 24.2 25.9 0 1-.1 1.9-.2 2.9 6.6 3.6 10.8 10.8 10.8 18.7 0 9.7-6.2 18.1-15 20.5l-2.9.6zM26.4 41.1c-9.9 0-18 8.7-18 19.4s8.1 19.4 18 19.4h93.9l2.5-.5c7.1-1.9 12.2-8.9 12.2-16.9 0-7-3.9-13.2-9.9-15.9l-1.3-.6.2-1.4c.2-1.2.3-2.4.3-3.6 0-12.2-9.2-22.1-20.5-22.1-3.5 0-6.9 1-10 2.8l-1.8 1-.8-2C87.7 12.7 80.1 7.4 72 7.4c-11.8 0-21.4 10.4-21.4 23.1v.7l.1 2.7-2.6-.8c-1.5-.5-2.9-.7-4.4-.7-5.4 0-10.5 3-13.4 8l-.6 1.1-1.2-.2c-.7-.1-1.4-.2-2.1-.2z"/>
  </g>
</svg>
