<svg xmlns="http://www.w3.org/2000/svg" id="Layer_1" version="1" viewBox="0 0 51 41">
  <style>
    .st0{fill:#4FB6DC;} .st1{fill:#4FB6DC;stroke:#4FB6DC;stroke-width:0.5;stroke-miterlimit:10;}
  </style>
  <path d="M41.3 19.2v-6c0-1-.3-2-1-2.7-.6-.7-1.6-1-2.7-1H6c-2.5 0-4 1.5-4 3.8v22.4c0 1 .4 2 1 2.8.8.7 1.7 1 2.7 1h31.9c1 0 2-.2 2.6-1 .7-.6 1-1.6 1-2.6V19zM3.8 13.4c0-1.6.7-2.3 2.3-2.3h31.5c1.7 0 2.4.8 2.4 2.5v22.3c0 1.4-1 2.2-2.3 2.2H6c-1.5 0-2.2-.7-2.2-2.2V13.4z" class="st0"/>
  <path d="M45.5 1.6h-32c-1.8 0-3 1.2-3.4 3v2.8c0 .2 0 .4.2.5l.6.2c.5 0 .7-.3.7-.8v-2c0-1.7.7-2.4 2.3-2.4h31.4c1.6 0 2.3.7 2.3 2.4v22.4c0 .7-.2 1.3-.6 1.7-.5.3-1 .5-1.5.5h-2c-.7 0-1 .4-1 .8 0 .2.2.4.3.5 0 .2.4.2.7.2h2c2.4 0 3.7-1.4 3.7-3.7V5.2c0-2.2-1.4-3.6-3.7-3.6zM25 35.6c1.4 0 2.7-.4 3.6-1.2 1 .8 2.2 1.3 3.5 1.3 3 0 5.5-2.4 5.5-5.4S35 25 32 25c-1.2 0-2.5.4-3.4 1.2-1-.8-2.2-1.3-3.5-1.3-3 0-5.3 2.3-5.3 5.3s2.5 5.4 5.4 5.4zm0-9.4c1 0 2 .4 2.7 1-.6 1-1 2-1 3s.5 2.3 1 3.2c-.7.6-1.6 1-2.6 1-2 0-4-1.8-4-4 0-2.3 2-4.2 4-4.2zm7 8c-1 0-1.8-.3-2.5-1 .6-.8 1-1.8 1-3s-.5-2.2-1-3c.7-.7 1.6-1 2.6-1 2.3 0 4 1.7 4 4s-1.7 4-4 4zm-3-4c0 .8 0 1.5-.4 2-.3-.6-.5-1.2-.5-2s.3-1.3.6-1.8c.3.5.5 1.2.5 2z" class="st0"/>
  <path d="M46 13h-2c-.5 0-1-.4-1-1 0-.5.5-1 1-1h2c.5 0 1 .4 1 1s-.5 1-1 1z" class="st0"/>
  <path d="M45.5 7h-32c-.3 0-.5-.2-.5-.5s.2-.5.5-.5h32c.3 0 .5.2.5.5s-.2.5-.5.5z" class="st1"/>
</svg>
